<?xml version='1.0' encoding='UTF-8'?>
<!-- This file was generated by dvisvgm 2.11.1 -->
<svg version='1.1' xmlns='http://www.w3.org/2000/svg' xmlns:xlink='http://www.w3.org/1999/xlink' width='170.0786pt' height='141.816pt' viewBox='56.6594 195.424 170.0786 141.816'>
<defs>
<path id='g0-65' d='M2.032379-1.327024C1.613948-.621669 1.207472-.382565 .633624-.3467C.502117-.334745 .406476-.334745 .406476-.119552C.406476-.047821 .466252 0 .549938 0C.765131 0 1.303113-.02391 1.518306-.02391C1.865006-.02391 2.247572 0 2.582316 0C2.654047 0 2.797509 0 2.797509-.227148C2.797509-.334745 2.701868-.3467 2.630137-.3467C2.355168-.37061 2.12802-.466252 2.12802-.753176C2.12802-.920548 2.199751-1.052055 2.355168-1.315068L3.263761-2.82142H6.312329C6.324284-2.713823 6.324284-2.618182 6.336239-2.510585C6.372105-2.199751 6.515567-.956413 6.515567-.729265C6.515567-.37061 5.905853-.3467 5.71457-.3467C5.583064-.3467 5.451557-.3467 5.451557-.131507C5.451557 0 5.559153 0 5.630884 0C5.834122 0 6.073225-.02391 6.276463-.02391H6.957908C7.687173-.02391 8.2132 0 8.225156 0C8.308842 0 8.440349 0 8.440349-.227148C8.440349-.3467 8.332752-.3467 8.153425-.3467C7.49589-.3467 7.483935-.454296 7.44807-.812951L6.718804-8.272976C6.694894-8.51208 6.647073-8.53599 6.515567-8.53599C6.396015-8.53599 6.324284-8.51208 6.216687-8.332752L2.032379-1.327024ZM3.466999-3.16812L5.869988-7.185056L6.276463-3.16812H3.466999Z'/>
<path id='g0-66' d='M4.375592-7.352428C4.483188-7.79477 4.531009-7.81868 4.99726-7.81868H6.551432C7.902366-7.81868 7.902366-6.670984 7.902366-6.563387C7.902366-5.595019 6.933998-4.363636 5.355915-4.363636H3.634371L4.375592-7.352428ZM6.396015-4.267995C7.699128-4.507098 8.88269-5.415691 8.88269-6.515567C8.88269-7.44807 8.057783-8.16538 6.706849-8.16538H2.86924C2.642092-8.16538 2.534496-8.16538 2.534496-7.938232C2.534496-7.81868 2.642092-7.81868 2.82142-7.81868C3.550685-7.81868 3.550685-7.723039 3.550685-7.591532C3.550685-7.567621 3.550685-7.49589 3.502864-7.316563L1.888917-.884682C1.78132-.466252 1.75741-.3467 .920548-.3467C.6934-.3467 .573848-.3467 .573848-.131507C.573848 0 .645579 0 .884682 0H4.985305C6.814446 0 8.225156-1.3868 8.225156-2.594271C8.225156-3.574595 7.364384-4.172354 6.396015-4.267995ZM4.698381-.3467H3.084433C2.917061-.3467 2.893151-.3467 2.82142-.358655C2.689913-.37061 2.677958-.394521 2.677958-.490162C2.677958-.573848 2.701868-.645579 2.725778-.753176L3.56264-4.124533H5.810212C7.220922-4.124533 7.220922-2.809465 7.220922-2.713823C7.220922-1.566127 6.180822-.3467 4.698381-.3467Z'/>
<path id='g0-67' d='M8.930511-8.308842C8.930511-8.416438 8.846824-8.416438 8.822914-8.416438S8.751183-8.416438 8.655542-8.296887L7.830635-7.292653C7.412204-8.009963 6.75467-8.416438 5.858032-8.416438C3.275716-8.416438 .597758-5.798257 .597758-2.988792C.597758-.992279 1.996513 .251059 3.741968 .251059C4.698381 .251059 5.535243-.155417 6.228643-.74122C7.268742-1.613948 7.579577-2.773599 7.579577-2.86924C7.579577-2.976837 7.483935-2.976837 7.44807-2.976837C7.340473-2.976837 7.328518-2.905106 7.304608-2.857285C6.75467-.992279 5.140722-.095641 3.945205-.095641C2.677958-.095641 1.578082-.908593 1.578082-2.606227C1.578082-2.988792 1.697634-5.068991 3.048568-6.635118C3.706102-7.400249 4.829888-8.069738 5.965629-8.069738C7.280697-8.069738 7.866501-6.981818 7.866501-5.762391C7.866501-5.451557 7.830635-5.188543 7.830635-5.140722C7.830635-5.033126 7.950187-5.033126 7.986052-5.033126C8.117559-5.033126 8.129514-5.045081 8.177335-5.260274L8.930511-8.308842Z'/>
</defs>
<g id='page1'>
<g transform='matrix(0.996264 0 0 0.996264 56.6594 195.424)'>
<path d='M 0.250937 142.096L 0.250937 0.250937' fill='none' stroke='#e6e6e6' stroke-linecap='round' stroke-linejoin='round' stroke-miterlimit='10.0375' stroke-width='0.501875'/>
</g>
<g transform='matrix(0.996264 0 0 0.996264 56.6594 195.424)'>
<path d='M 28.62 142.096L 28.62 0.250937' fill='none' stroke='#e6e6e6' stroke-linecap='round' stroke-linejoin='round' stroke-miterlimit='10.0375' stroke-width='0.501875'/>
</g>
<g transform='matrix(0.996264 0 0 0.996264 56.6594 195.424)'>
<path d='M 56.9892 142.096L 56.9892 0.250937' fill='none' stroke='#e6e6e6' stroke-linecap='round' stroke-linejoin='round' stroke-miterlimit='10.0375' stroke-width='0.501875'/>
</g>
<g transform='matrix(0.996264 0 0 0.996264 56.6594 195.424)'>
<path d='M 85.3583 142.096L 85.3583 0.250937' fill='none' stroke='#e6e6e6' stroke-linecap='round' stroke-linejoin='round' stroke-miterlimit='10.0375' stroke-width='0.501875'/>
</g>
<g transform='matrix(0.996264 0 0 0.996264 56.6594 195.424)'>
<path d='M 113.727 142.096L 113.727 0.250937' fill='none' stroke='#e6e6e6' stroke-linecap='round' stroke-linejoin='round' stroke-miterlimit='10.0375' stroke-width='0.501875'/>
</g>
<g transform='matrix(0.996264 0 0 0.996264 56.6594 195.424)'>
<path d='M 142.096 142.096L 142.096 0.250937' fill='none' stroke='#e6e6e6' stroke-linecap='round' stroke-linejoin='round' stroke-miterlimit='10.0375' stroke-width='0.501875'/>
</g>
<g transform='matrix(0.996264 0 0 0.996264 56.6594 195.424)'>
<path d='M 170.466 142.096L 170.466 0.250937' fill='none' stroke='#e6e6e6' stroke-linecap='round' stroke-linejoin='round' stroke-miterlimit='10.0375' stroke-width='0.501875'/>
</g>
<g transform='matrix(0.996264 0 0 0.996264 56.6594 195.424)'>
<path d='M 0.250937 142.096L 170.466 142.096' fill='none' stroke='#e6e6e6' stroke-linecap='round' stroke-linejoin='round' stroke-miterlimit='10.0375' stroke-width='0.501875'/>
</g>
<g transform='matrix(0.996264 0 0 0.996264 56.6594 195.424)'>
<path d='M 0.250937 113.727L 170.466 113.727' fill='none' stroke='#e6e6e6' stroke-linecap='round' stroke-linejoin='round' stroke-miterlimit='10.0375' stroke-width='0.501875'/>
</g>
<g transform='matrix(0.996264 0 0 0.996264 56.6594 195.424)'>
<path d='M 0.250937 85.3583L 170.466 85.3583' fill='none' stroke='#e6e6e6' stroke-linecap='round' stroke-linejoin='round' stroke-miterlimit='10.0375' stroke-width='0.501875'/>
</g>
<g transform='matrix(0.996264 0 0 0.996264 56.6594 195.424)'>
<path d='M 0.250937 56.9892L 170.466 56.9892' fill='none' stroke='#e6e6e6' stroke-linecap='round' stroke-linejoin='round' stroke-miterlimit='10.0375' stroke-width='0.501875'/>
</g>
<g transform='matrix(0.996264 0 0 0.996264 56.6594 195.424)'>
<path d='M 0.250937 28.62L 170.466 28.62' fill='none' stroke='#e6e6e6' stroke-linecap='round' stroke-linejoin='round' stroke-miterlimit='10.0375' stroke-width='0.501875'/>
</g>
<g transform='matrix(0.996264 0 0 0.996264 56.6594 195.424)'>
<path d='M 0.250937 0.250937L 170.466 0.250937' fill='none' stroke='#e6e6e6' stroke-linecap='round' stroke-linejoin='round' stroke-miterlimit='10.0375' stroke-width='0.501875'/>
</g>
<g transform='matrix(0.996264 0 0 0.996264 56.6594 195.424)'>
<path d='M 28.62 113.727L 142.096 113.727L 113.727 28.62L 28.62 113.727Z' fill='none' stroke='#000000' stroke-linecap='round' stroke-linejoin='round' stroke-miterlimit='10.0375' stroke-width='0.501875'/>
</g>
<g transform='matrix(0.996264 0 0 0.996264 56.6594 195.424)'>
<circle cx='28.62' cy='113.727' fill='#000000' r='1.50562'/>
</g>
<use x='73.087509' y='315.815494' xlink:href='#g0-65'/>
<g transform='matrix(0.996264 0 0 0.996264 56.6594 195.424)'>
<circle cx='142.096' cy='113.727' fill='#000000' r='1.50562'/>
</g>
<use x='201.138446' y='317.792227' xlink:href='#g0-66'/>
<g transform='matrix(0.996264 0 0 0.996264 56.6594 195.424)'>
<circle cx='113.727' cy='28.62' fill='#000000' r='1.50562'/>
</g>
<use x='167.262794' y='220.386396' xlink:href='#g0-67'/>
</g>
</svg>