<?xml version="1.0" encoding="UTF-8" standalone="no"?>
<svg
   viewBox="-78 -46 476 560"
   width="476"
   height="560"
   version="1.1"
   id="svg689"
   sodipodi:docname="modele-OSI.svg"
   inkscape:version="1.1.1 (3bf5ae0d25, 2021-09-20, custom)"
   xmlns:inkscape="http://www.inkscape.org/namespaces/inkscape"
   xmlns:sodipodi="http://sodipodi.sourceforge.net/DTD/sodipodi-0.dtd"
   xmlns:xlink="http://www.w3.org/1999/xlink"
   xmlns="http://www.w3.org/2000/svg"
   xmlns:svg="http://www.w3.org/2000/svg">
  <sodipodi:namedview
     id="namedview691"
     pagecolor="transparent"
     bordercolor="#666666"
     borderopacity="1.0"
     inkscape:pageshadow="2"
     inkscape:pageopacity="0.0"
     inkscape:pagecheckerboard="0"
     showgrid="false"
     inkscape:zoom="2.3583422"
     inkscape:cx="246.3595"
     inkscape:cy="290.8823"
     inkscape:window-width="3769"
     inkscape:window-height="2132"
     inkscape:window-x="71"
     inkscape:window-y="0"
     inkscape:window-maximized="1"
     inkscape:current-layer="switch687"
     fill="none" />
  <defs
     id="defs4">
    <path
       id="bracket-mask"
       d="m-3.5569 225c-0.231-4.08-0.231-4.08-0.231-4.08l-0.847-3.93-1.309-3.23-1.617-2.93-2.156-2.46-2.3101-2-2.695-1.16-3.003-0.38 3.003-0.24 2.695-1.23 2.3101-1.69 2.156-2.7 1.617-3 1.309-3.23 0.847-3.85 0.231-4.24"
       stroke="#7c7c7c"
       fill="#7c7c7c" />
    <path
       id="bracket"
       fill="none"
       stroke="#7c7c7c"
       d="m-3.5569 225c-0.231-4.08-0.231-4.08-0.231-4.08l-0.847-3.93-1.309-3.23-1.617-2.93-2.156-2.46-2.3101-2-2.695-1.16-3.003-0.38 3.003-0.24 2.695-1.23 2.3101-1.69 2.156-2.7 1.617-3 1.309-3.23 0.847-3.85 0.231-4.24" />
  </defs>
  <rect
     height="100%"
     width="100%"
     y="-46"
     x="-78"
     fill="none"
     id="rect5" />
  <g
     fill="none"
     id="g15">
    <rect
       ry="5"
       height="192"
       width="30.945"
       stroke="#7c7c7c"
       y="283.04"
       x="-22.297"
       stroke-width="2"
       class="bracket"
       id="rect7" />
    <rect
       ry="6"
       height="257.77"
       width="30.945"
       stroke="#7c7c7c"
       y="-4.0167"
       x="-21.953"
       stroke-width="2"
       class="bracket"
       id="rect9" />
    <rect
       ry="17.641"
       height="212.09"
       width="360.12"
       stroke="#b2b2b2"
       y="272.97"
       x="8.9502"
       stroke-width="6"
       class="outline"
       id="rect11" />
    <rect
       ry="17.641"
       height="278.17"
       width="360.12"
       stroke="#b2b2b2"
       y="-14.017"
       x="8.9443"
       stroke-width="6"
       class="outline"
       id="rect13" />
  </g>
  <g
     style="paint-order:stroke"
     stroke-width="2"
     stroke="#000"
     stroke-opacity=".4"
     id="g47">
    <g
       fill="#c4db80"
       id="g29">
      <rect
         ry="17.641001"
         height="60"
         width="120"
         y="-4.0728989"
         x="240.98001"
         class="col1 row1"
         id="rect17" />
      <rect
         ry="17.641001"
         height="60"
         width="220"
         y="-4.0728998"
         x="16.980003"
         class="col2 row1"
         id="rect19" />
      <rect
         ry="17.641001"
         height="60"
         width="120"
         y="61.926994"
         x="240.98001"
         class="col1 row2"
         id="rect21" />
      <rect
         ry="17.641001"
         height="60"
         width="220"
         y="61.926998"
         x="16.980003"
         class="col2 row2"
         id="rect23" />
      <rect
         ry="17.641001"
         height="60"
         width="120"
         y="127.93"
         x="240.98001"
         class="col1 row3"
         id="rect25" />
      <rect
         ry="17.641001"
         height="60"
         width="220"
         y="127.93"
         x="16.980003"
         class="col2 row3"
         id="rect27" />
    </g>
    <rect
       ry="17.641001"
       height="60"
       width="120"
       y="193.92999"
       x="240.98001"
       class="col1 row4"
       fill="#e0e97f"
       id="rect31" />
    <rect
       ry="17.641001"
       height="60"
       width="220"
       y="193.92999"
       x="16.980003"
       class="col2 row4"
       fill="#e0e97f"
       id="rect33" />
    <rect
       ry="17.641001"
       height="60"
       width="120"
       y="283.03"
       x="240.71158"
       class="col1 row5"
       fill="#f0e17f"
       id="rect35" />
    <rect
       ry="17.641001"
       height="60"
       width="220"
       y="283.03"
       x="16.711571"
       class="col2 row5"
       fill="#f0e17f"
       id="rect37" />
    <rect
       ry="17.641001"
       height="60"
       width="120"
       y="349.03"
       x="240.71158"
       class="col1 row6"
       fill="#edc27f"
       id="rect39" />
    <rect
       ry="17.641001"
       height="60"
       width="220"
       y="349.03"
       x="16.711571"
       class="col2 row6"
       fill="#edc27f"
       id="rect41" />
    <rect
       ry="17.641001"
       height="60"
       width="120"
       y="415.03"
       x="240.71158"
       class="col1 row7"
       fill="#dca27f"
       id="rect43" />
    <rect
       ry="17.641001"
       height="60"
       width="220"
       y="415.03"
       x="16.711571"
       class="col2 row7"
       fill="#dca27f"
       id="rect45" />
  </g>
  <use
     y="-80"
     x="-17"
     xlink:href="#bracket-mask"
     id="use49" />
  <use
     xlink:href="#bracket"
     stroke="#7c7c7c"
     y="-80"
     x="-18.4"
     stroke-width="1.9"
     fill="none"
     id="use51" />
  <use
     y="176"
     x="-17"
     xlink:href="#bracket-mask"
     id="use53" />
  <use
     xlink:href="#bracket"
     stroke="#7c7c7c"
     y="176"
     x="-18.4"
     stroke-width="1.9"
     fill="none"
     id="use55" />
  <switch
     font-size="18.062"
     font-family="Arial,sans-serif"
     id="switch687">
    <!-- ================================================ -->
    <g
       style="text-anchor:middle"
       systemLanguage="it"
       id="g135">
      <text
         y="-26.3051"
         x="80"
         id="text57">unità di dato</text>
      <text
         y="-26.3051"
         x="250"
         id="text59">livelli</text>
      <text
         y="31.3882"
         x="78.9818"
         id="text61">Dati</text>
      <text
         y="97.3882"
         x="78.9818"
         id="text63">Dati</text>
      <text
         y="163.388"
         x="78.9818"
         id="text65">Dati</text>
      <text
         y="229.388"
         x="78.9818"
         id="text67">Segmenti</text>
      <text
         y="318.494"
         x="79.04"
         id="text69">Pacchetti</text>
      <text
         y="384.494"
         x="79.04"
         id="text71">Trame</text>
      <text
         y="450.494"
         x="79.04"
         id="text73">Bit</text>
      <text
         y="18"
         x="248.982"
         id="text81"><tspan
           id="tspan75">Applicazione</tspan><tspan
           x="248.982"
           font-size="10pt"
           dy="16"
           id="tspan77">dal processo di rete</tspan><tspan
           x="248.982"
           font-size="10pt"
           dy="16"
           id="tspan79">all'applicazione</tspan></text>
      <text
         y="82"
         x="248.982"
         id="text89"><tspan
           id="tspan83">Presentazione</tspan><tspan
           x="248.982"
           font-size="10pt"
           dy="16"
           id="tspan85">rappresentazione dei dati</tspan><tspan
           x="248.982"
           font-size="10pt"
           dy="16"
           id="tspan87">e criptazione</tspan></text>
      <text
         y="150"
         x="248.982"
         id="text95"><tspan
           id="tspan91">Sessione</tspan><tspan
           x="248.982"
           font-size="10pt"
           dy="22"
           id="tspan93">comunicazione inter-host</tspan></text>
      <text
         y="214"
         x="248.982"
         id="text103"><tspan
           id="tspan97">Trasporto</tspan><tspan
           x="248.982"
           font-size="10pt"
           dy="16"
           id="tspan99">connessioni end-to-end</tspan><tspan
           x="248.982"
           font-size="10pt"
           dy="16"
           id="tspan101">e affidabilità</tspan></text>
      <text
         y="303"
         x="249.04"
         id="text111"><tspan
           id="tspan105">Rete</tspan><tspan
           x="248.982"
           font-size="10pt"
           dy="16"
           id="tspan107">determinazione dei percorsi e</tspan><tspan
           x="248.982"
           font-size="10pt"
           dy="16"
           id="tspan109">indirizzamento logico (IP)</tspan></text>
      <text
         y="369"
         x="249.04"
         id="text119"><tspan
           id="tspan113">Collegamento</tspan><tspan
           x="248.982"
           font-size="10pt"
           dy="16"
           id="tspan115">indirizzamento fisico</tspan><tspan
           x="248.982"
           font-size="10pt"
           dy="16"
           id="tspan117">(MAC e LLC)</tspan></text>
      <text
         y="435"
         x="249.04"
         id="text127"><tspan
           id="tspan121">Fisico</tspan><tspan
           x="248.982"
           font-size="10pt"
           dy="16"
           id="tspan123">mezzo, segnale e</tspan><tspan
           x="248.982"
           font-size="10pt"
           dy="16"
           id="tspan125">trasmissione binaria</tspan></text>
      <g
         font-size="24.062"
         id="g133">
        <text
           y="127"
           x="-50"
           transform="rotate(-90 -50 127)"
           id="text129">Livelli degli host</text>
        <text
           y="384"
           x="-50"
           transform="rotate(-90 -50 384)"
           id="text131">Livelli dei mezzi</text>
      </g>
    </g>
    <!-- ================================================ -->
    <g
       style="text-anchor:middle"
       systemLanguage="ro"
       id="g215">
      <text
         y="-26.3051"
         x="80"
         id="text137">unitate de date</text>
      <text
         y="-26.3051"
         x="250"
         id="text139">niveluri</text>
      <text
         y="31.3882"
         x="78.9818"
         id="text141">Date</text>
      <text
         y="97.3882"
         x="78.9818"
         id="text143">Date</text>
      <text
         y="163.388"
         x="78.9818"
         id="text145">Date</text>
      <text
         y="229.388"
         x="78.9818"
         id="text147">Segmente</text>
      <text
         y="318.494"
         x="79.04"
         id="text149">Pachete</text>
      <text
         y="384.494"
         x="79.04"
         id="text151">Cadre</text>
      <text
         y="450.494"
         x="79.04"
         id="text153">Biți</text>
      <text
         y="18"
         x="248.982"
         id="text161"><tspan
           id="tspan155">Aplicație</tspan><tspan
           x="248.982"
           font-size="10pt"
           dy="16"
           id="tspan157">de la procesulde rețea</tspan><tspan
           x="248.982"
           font-size="10pt"
           dy="16"
           id="tspan159">la'aplicație</tspan></text>
      <text
         y="82"
         x="248.982"
         id="text169"><tspan
           id="tspan163">Prezentare</tspan><tspan
           x="248.982"
           font-size="10pt"
           dy="16"
           id="tspan165">reprezentarea datelor</tspan><tspan
           x="248.982"
           font-size="10pt"
           dy="16"
           id="tspan167">și criptare</tspan></text>
      <text
         y="150"
         x="248.982"
         id="text175"><tspan
           id="tspan171">Sesiune</tspan><tspan
           x="248.982"
           font-size="10pt"
           dy="22"
           id="tspan173">comunicare între hosturi</tspan></text>
      <text
         y="214"
         x="248.982"
         id="text183"><tspan
           id="tspan177">Trasport</tspan><tspan
           x="248.982"
           font-size="10pt"
           dy="16"
           id="tspan179">conexiuni end-to-end</tspan><tspan
           x="248.982"
           font-size="10pt"
           dy="16"
           id="tspan181">și fiabilitate</tspan></text>
      <text
         y="303"
         x="249.04"
         id="text191"><tspan
           id="tspan185">Rețea</tspan><tspan
           x="248.982"
           font-size="10pt"
           dy="16"
           id="tspan187">determinarea rutelor</tspan><tspan
           x="248.982"
           font-size="10pt"
           dy="16"
           id="tspan189">și adresare logică (IP)</tspan></text>
      <text
         y="369"
         x="249.04"
         id="text199"><tspan
           id="tspan193">Legătură de date</tspan><tspan
           x="248.982"
           font-size="10pt"
           dy="16"
           id="tspan195">adresare fizică</tspan><tspan
           x="248.982"
           font-size="10pt"
           dy="16"
           id="tspan197">(MAC și LLC)</tspan></text>
      <text
         y="435"
         x="249.04"
         id="text207"><tspan
           id="tspan201">Fizic</tspan><tspan
           x="248.982"
           font-size="10pt"
           dy="16"
           id="tspan203">mediu, semnal și</tspan><tspan
           x="248.982"
           font-size="10pt"
           dy="16"
           id="tspan205">transmisiune binară</tspan></text>
      <g
         font-size="24.062"
         id="g213">
        <text
           y="127"
           x="-50"
           transform="rotate(-90 -50 127)"
           id="text209">Niveluri ale hostului</text>
        <text
           y="384"
           x="-50"
           transform="rotate(-90 -50 384)"
           id="text211">Niveluri are mediului</text>
      </g>
    </g>
    <!-- ================================================ -->
    <g
       style="text-anchor:middle"
       systemLanguage="cs"
       id="g291">
      <text
         y="-26.3051"
         x="80"
         id="text217">data</text>
      <text
         y="-26.3051"
         x="250"
         id="text219">vrstva</text>
      <text
         y="31.3882"
         x="78.9818"
         id="text221">Data</text>
      <text
         y="97.3882"
         x="78.9818"
         id="text223">Data</text>
      <text
         y="163.388"
         x="78.9818"
         id="text225">Data</text>
      <text
         y="229.388"
         x="78.9818"
         id="text227">Segmenty</text>
      <text
         y="318.494"
         x="79.04"
         id="text229">Pakety</text>
      <text
         y="384.494"
         x="79.04"
         id="text231">Rámce</text>
      <text
         y="450.494"
         x="79.04"
         id="text233">Bity</text>
      <text
         y="18"
         x="248.982"
         id="text239"><tspan
           id="tspan235">Aplikační</tspan><tspan
           x="248.982"
           font-size="10pt"
           dy="22"
           id="tspan237">síťový proces aplikací</tspan></text>
      <text
         y="82"
         x="248.982"
         id="text245"><tspan
           id="tspan241">Prezentační</tspan><tspan
           x="248.982"
           font-size="10pt"
           dy="22"
           id="tspan243">prezentace dat a šifrování</tspan></text>
      <text
         y="150"
         x="248.982"
         id="text253"><tspan
           id="tspan247">Relační</tspan><tspan
           x="248.982"
           font-size="10pt"
           dy="16"
           id="tspan249">komunikace mezi</tspan><tspan
           x="248.982"
           font-size="10pt"
           dy="16"
           id="tspan251">hostitely</tspan></text>
      <text
         y="214"
         x="248.982"
         id="text261"><tspan
           id="tspan255">Transportní</tspan><tspan
           x="248.982"
           font-size="10pt"
           dy="16"
           id="tspan257">End-to-End spojení</tspan><tspan
           x="248.982"
           font-size="10pt"
           dy="16"
           id="tspan259">a spolehlivost</tspan></text>
      <text
         y="303"
         x="249.04"
         id="text269"><tspan
           id="tspan263">Síťová</tspan><tspan
           x="248.982"
           font-size="10pt"
           dy="16"
           id="tspan265">určování cesty a</tspan><tspan
           x="248.982"
           font-size="10pt"
           dy="16"
           id="tspan267">logické adresování (IP)</tspan></text>
      <text
         y="369"
         x="249.04"
         id="text277"><tspan
           id="tspan271">Spojová</tspan><tspan
           x="248.982"
           font-size="10pt"
           dy="16"
           id="tspan273">fyzické adresování</tspan><tspan
           x="248.982"
           font-size="10pt"
           dy="16"
           id="tspan275">(MAC a LLC)</tspan></text>
      <text
         y="435"
         x="249.04"
         id="text283"><tspan
           id="tspan279">Fyzická</tspan><tspan
           x="248.982"
           font-size="10pt"
           dy="22"
           id="tspan281">médium, signál, binární přenos</tspan></text>
      <g
         font-size="24.062"
         id="g289">
        <text
           y="127"
           x="-50"
           transform="rotate(-90 -50 127)"
           id="text285">Vrstvy hostitelů</text>
        <text
           y="384"
           x="-50"
           transform="rotate(-90 -50 384)"
           id="text287">Vrstvy média</text>
      </g>
    </g>
    <!-- ================================================ -->
    <g
       style="text-anchor:middle"
       systemLanguage="sv"
       id="g373">
      <text
         y="-26.3051"
         x="80"
         id="text293">data</text>
      <text
         y="-26.3051"
         x="250"
         id="text295">skikt</text>
      <text
         y="31.3882"
         x="78.9818"
         id="text297">Data</text>
      <text
         y="97.3882"
         x="78.9818"
         id="text299">Data</text>
      <text
         y="163.388"
         x="78.9818"
         id="text301">Data</text>
      <text
         y="229.388"
         x="78.9818"
         id="text303">Segment</text>
      <text
         y="318.494"
         x="79.04"
         id="text305">Paket</text>
      <text
         y="384.494"
         x="79.04"
         id="text307">Ramar</text>
      <text
         y="450.494"
         x="79.04"
         id="text309">Bitar</text>
      <text
         y="18"
         x="248.982"
         id="text317"><tspan
           id="tspan311">Applikation</tspan><tspan
           x="248.982"
           font-size="10pt"
           dy="16"
           id="tspan313">nätverksprocess</tspan><tspan
           x="248.982"
           font-size="10pt"
           dy="16"
           id="tspan315">till applikation</tspan></text>
      <text
         y="82"
         x="248.982"
         id="text325"><tspan
           id="tspan319">Presentation</tspan><tspan
           x="248.982"
           font-size="10pt"
           dy="16"
           id="tspan321">dataframställning</tspan><tspan
           x="248.982"
           font-size="10pt"
           dy="16"
           id="tspan323">och kryptering</tspan></text>
      <text
         y="150"
         x="248.982"
         id="text333"><tspan
           id="tspan327">Session</tspan><tspan
           x="248.982"
           font-size="10pt"
           dy="16"
           id="tspan329">mellanvärdslig</tspan><tspan
           x="248.982"
           font-size="10pt"
           dy="16"
           id="tspan331">kommunikationssamordning</tspan></text>
      <text
         y="214"
         x="248.982"
         id="text341"><tspan
           id="tspan335">Transport</tspan><tspan
           x="248.982"
           font-size="10pt"
           dy="16"
           id="tspan337">sändning, mottagning</tspan><tspan
           x="248.982"
           font-size="10pt"
           dy="16"
           id="tspan339">och ankomstkontroll</tspan></text>
      <text
         y="303"
         x="249.04"
         id="text349"><tspan
           id="tspan343">Nätverk</tspan><tspan
           x="248.982"
           font-size="10pt"
           dy="16"
           id="tspan345">navigering och</tspan><tspan
           x="248.982"
           font-size="10pt"
           dy="16"
           id="tspan347">logisk adressering (IP)</tspan></text>
      <text
         y="369"
         x="249.04"
         id="text357"><tspan
           id="tspan351">Datalänk</tspan><tspan
           x="248.982"
           font-size="10pt"
           dy="16"
           id="tspan353">fysisk adressering</tspan><tspan
           x="248.982"
           font-size="10pt"
           dy="16"
           id="tspan355">(MAC och LLC)</tspan></text>
      <text
         y="435"
         x="249.04"
         id="text365"><tspan
           id="tspan359">Fysiskt</tspan><tspan
           x="248.982"
           font-size="10pt"
           dy="16"
           id="tspan361">media, signal och</tspan><tspan
           x="248.982"
           font-size="10pt"
           dy="16"
           id="tspan363">binär överföring</tspan></text>
      <g
         font-size="24.062"
         id="g371">
        <text
           y="127"
           x="-50"
           transform="rotate(-90 -50 127)"
           id="text367">Värdskikt</text>
        <text
           y="384"
           x="-50"
           transform="rotate(-90 -50 384)"
           id="text369">Mediumskikt</text>
      </g>
    </g>
    <!-- ================================================ -->
    <g
       style="text-anchor:middle"
       systemLanguage="es"
       id="g449">
      <text
         y="-26.3051"
         x="80"
         id="text375">unidad de datos</text>
      <text
         y="-26.3051"
         x="250"
         id="text377">nivel o capa</text>
      <text
         y="31.3882"
         x="78.9818"
         id="text379">Dato</text>
      <text
         y="97.3882"
         x="78.9818"
         id="text381">Dato</text>
      <text
         y="163.388"
         x="78.9818"
         id="text383">Dato</text>
      <text
         y="229.388"
         x="78.9818"
         id="text385">Segmento</text>
      <text
         y="318.494"
         x="79.04"
         id="text387">Paquete</text>
      <text
         y="384.494"
         x="79.04"
         id="text389">Trama</text>
      <text
         y="450.494"
         x="79.04"
         id="text391">Bit</text>
      <text
         y="18"
         x="248.982"
         id="text397"><tspan
           id="tspan393">Nivel de aplicación</tspan><tspan
           x="248.982"
           font-size="10pt"
           dy="22"
           id="tspan395">servicios de red a aplicaciones</tspan></text>
      <text
         y="82"
         x="248.982"
         id="text403"><tspan
           id="tspan399">Nivel de presentación</tspan><tspan
           x="248.982"
           font-size="10pt"
           dy="22"
           id="tspan401">representación de los datos</tspan></text>
      <text
         y="150"
         x="248.982"
         id="text411"><tspan
           id="tspan405">Nivel de sesión</tspan><tspan
           x="248.982"
           font-size="10pt"
           dy="16"
           id="tspan407">comunicación entre dispositivos</tspan><tspan
           x="248.982"
           font-size="10pt"
           dy="16"
           id="tspan409">de la red</tspan></text>
      <text
         y="214"
         x="248.982"
         id="text419"><tspan
           id="tspan413">Nivel de transporte</tspan><tspan
           x="248.982"
           font-size="10pt"
           dy="16"
           id="tspan415">conexión de extremo a extremo</tspan><tspan
           x="248.982"
           font-size="10pt"
           dy="16"
           id="tspan417">y control de flujo de datos</tspan></text>
      <text
         y="303"
         x="249.04"
         id="text427"><tspan
           id="tspan421">Nivel de red</tspan><tspan
           x="248.982"
           font-size="10pt"
           dy="16"
           id="tspan423">determinación de ruta y</tspan><tspan
           x="248.982"
           font-size="10pt"
           dy="16"
           id="tspan425">direccionamiento lógico (IP)</tspan></text>
      <text
         y="369"
         x="249.04"
         id="text435"><tspan
           id="tspan429">Nivel de enlace de datos</tspan><tspan
           x="248.982"
           font-size="10pt"
           dy="16"
           id="tspan431">direccionamiento físico</tspan><tspan
           x="248.982"
           font-size="10pt"
           dy="16"
           id="tspan433">(MAC y LLC)</tspan></text>
      <text
         y="435"
         x="249.04"
         id="text441"><tspan
           id="tspan437">Nivel físico</tspan><tspan
           x="248.982"
           font-size="10pt"
           dy="22"
           id="tspan439">señal y transmisión binaria</tspan></text>
      <g
         font-size="24.062"
         id="g447">
        <text
           y="127"
           x="-50"
           transform="rotate(-90 -50 127)"
           id="text443">Capas del anfitrión</text>
        <text
           y="384"
           x="-50"
           transform="rotate(-90 -50 384)"
           id="text445">Capas del medio</text>
      </g>
    </g>
    <!-- ================================================ -->
    <g
       style="text-anchor:middle"
       systemLanguage="sk"
       id="g529">
      <text
         y="-26.3051"
         x="80"
         id="text451">dáta</text>
      <text
         y="-26.3051"
         x="250"
         id="text453">vrstva</text>
      <text
         y="97.3882"
         x="78.9818"
         id="text457">Dáta</text>
      <text
         y="163.388"
         x="78.9818"
         id="text459">Dáta</text>
      <text
         y="229.388"
         x="78.9818"
         id="text461">Segmenty</text>
      <text
         y="318.494"
         x="79.04"
         id="text463">Pakety</text>
      <text
         y="384.494"
         x="79.04"
         id="text465">Rámce</text>
      <text
         y="450.494"
         x="79.04"
         id="text467">Bity</text>
      <text
         y="18"
         x="248.982"
         id="text473"><tspan
           id="tspan469">Aplikačná</tspan><tspan
           x="248.982"
           font-size="10pt"
           dy="22"
           id="tspan471">sieťový proces aplikácii</tspan></text>
      <text
         y="82"
         x="248.982"
         id="text481"><tspan
           id="tspan475">Prezentačná</tspan><tspan
           x="248.982"
           font-size="10pt"
           dy="16"
           id="tspan477">reprezentácia dát</tspan><tspan
           x="248.982"
           font-size="10pt"
           dy="16"
           id="tspan479">a kryptovanie</tspan></text>
      <text
         y="150"
         x="248.982"
         id="text489"><tspan
           id="tspan483">Relačná</tspan><tspan
           x="248.982"
           font-size="10pt"
           dy="16"
           id="tspan485">komunikácia</tspan><tspan
           x="248.982"
           font-size="10pt"
           dy="16"
           id="tspan487">medzi strojmi</tspan></text>
      <text
         y="214"
         x="248.982"
         id="text497"><tspan
           id="tspan491">Transportná</tspan><tspan
           x="248.982"
           font-size="10pt"
           dy="16"
           id="tspan493">End-to-end spojenia</tspan><tspan
           x="248.982"
           font-size="10pt"
           dy="16"
           id="tspan495">a spoľahlivosť</tspan></text>
      <text
         y="303"
         x="249.04"
         id="text505"><tspan
           id="tspan499">Sieťová</tspan><tspan
           x="248.982"
           font-size="10pt"
           dy="16"
           id="tspan501">určovanie cesty a</tspan><tspan
           x="248.982"
           font-size="10pt"
           dy="16"
           id="tspan503">logické adresovanie (IP)</tspan></text>
      <text
         y="369"
         x="249.04"
         id="text513"><tspan
           id="tspan507">Spojová</tspan><tspan
           x="248.982"
           font-size="10pt"
           dy="16"
           id="tspan509">fyzické adresovanie</tspan><tspan
           x="248.982"
           font-size="10pt"
           dy="16"
           id="tspan511">(MAC a LLC)</tspan></text>
      <text
         y="435"
         x="249.04"
         id="text521"><tspan
           id="tspan515">Fyzická</tspan><tspan
           x="248.982"
           font-size="10pt"
           dy="16"
           id="tspan517">médium, signál,</tspan><tspan
           x="248.982"
           font-size="10pt"
           dy="16"
           id="tspan519">binárny prenos</tspan></text>
      <g
         font-size="24.062"
         id="g527">
        <text
           y="127"
           x="-50"
           transform="rotate(-90 -50 127)"
           id="text523">Vrstvy stroja</text>
        <text
           y="384"
           x="-50"
           transform="rotate(-90 -50 384)"
           id="text525">Vrstvy média</text>
      </g>
    </g>
    <!-- ================================================ French -->
    <g
       style="text-anchor:middle"
       systemLanguage="fr"
       id="g607">
      <text
         y="-25.353939"
         x="296.78891"
         id="text531"><tspan
           sodipodi:role="line"
           id="tspan43228"
           x="296.78891"
           y="-25.353939"
           style="fill:#999999;fill-opacity:1">Unité de Données (PDU)</tspan></text>
      <text
         y="-24.959169"
         x="122.6386"
         id="text533"><tspan
           style="fill:#999999"
           id="tspan21234">Couches</tspan></text>
      <text
         y="27.804102"
         x="303.02686"
         id="text535">Donnée</text>
      <text
         y="93.8041"
         x="303.02686"
         id="text537">Donnée</text>
      <text
         y="159.80391"
         x="303.02686"
         id="text539">Donnée</text>
      <text
         y="225.80391"
         x="303.02686"
         id="text541">Segment</text>
      <text
         y="315.9942"
         x="300.73291"
         id="text543">Paquet</text>
      <text
         y="381.9942"
         x="300.73291"
         id="text545">Trame</text>
      <text
         y="447.9942"
         x="300.73291"
         id="text547">Bit</text>
      <text
         y="18"
         x="126.98199"
         id="text553"><tspan
           id="tspan549">7 - Application</tspan><tspan
           x="126.98199"
           font-size="13.3333px"
           dy="22"
           id="tspan551">Point d'accès aux Services réseau</tspan></text>
      <text
         y="82.785591"
         x="129.3752"
         id="text561"><tspan
           sodipodi:role="line"
           x="129.3752"
           y="82.785591"
           id="tspan7596">6 - Présentation</tspan></text>
      <text
         y="144.45268"
         x="126.8035"
         id="text567"><tspan
           id="tspan563">5 - Session</tspan><tspan
           x="126.8035"
           font-size="13.3333px"
           id="tspan565" /></text>
      <text
         y="210"
         x="127.48624"
         id="text575">4 - Transport<tspan
   x="127.48624"
   font-size="13.3333px"
   id="tspan571" /></text>
      <text
         y="300.30203"
         x="129.27197"
         id="text583">3 - Réseau<tspan
   x="129.21396"
   font-size="13.3333px"
   id="tspan579" /></text>
      <text
         y="369.6033"
         x="123.57678"
         id="text591"><tspan
           id="tspan585">2 - Liaison</tspan><tspan
           x="123.51878"
           font-size="13.3333px"
           dy="16"
           id="tspan587">Adressage physique</tspan><tspan
           x="123.51878"
           font-size="13.3333px"
           dy="16"
           id="tspan589">(MAC et LLC)</tspan></text>
      <text
         y="434.52841"
         x="125.19526"
         id="text599"><tspan
           id="tspan593">1 - Physique</tspan><tspan
           x="125.13726"
           font-size="13.3333px"
           dy="16"
           id="tspan595">Transmission binaire</tspan><tspan
           x="125.13726"
           font-size="13.3333px"
           dy="16"
           id="tspan597">numérique ou analogique</tspan></text>
      <g
         font-size="24.062"
         id="g605">
        <text
           y="127"
           x="-50"
           transform="rotate(-90,-50,127)"
           id="text601"><tspan
             style="fill:#999999;fill-opacity:1"
             id="tspan8898">Couches hautes</tspan></text>
        <text
           y="384"
           x="-50"
           transform="rotate(-90,-50,384)"
           id="text603"><tspan
             style="fill:#999999;fill-opacity:1"
             id="tspan14324">Couches matérielles</tspan></text>
      </g>
      <text
         xml:space="preserve"
         style="font-size:10.6667px;line-height:1.25;font-family:sans-serif"
         x="127.45273"
         y="157.32495"
         id="text74019"><tspan
           sodipodi:role="line"
           x="127.45273"
           y="157.32495"
           id="tspan74963"
           style="font-size:10.6667px">Sessions de connexions (Sockets),</tspan><tspan
           sodipodi:role="line"
           x="127.45273"
           y="170.65833"
           id="tspan86549"
           style="font-size:10.6667px">Synchronisations, Autorisations (Token)</tspan><tspan
           sodipodi:role="line"
           x="127.45273"
           y="183.9917"
           id="tspan74965"
           style="font-size:10.6667px"> Authentification</tspan></text>
    </g>
    <!-- ================================================ -->
    <g
       style="text-anchor:middle"
       id="g685">
      <text
         y="-26.3051"
         x="80"
         id="text609">data unit</text>
      <text
         y="-26.305099"
         x="250"
         id="text611"
         inkscape:transform-center-x="31.197924"
         inkscape:transform-center-y="-3.7764215">layers</text>
      <text
         y="31.3882"
         x="78.9818"
         id="text613">Data</text>
      <text
         y="97.3882"
         x="78.9818"
         id="text615">Data</text>
      <text
         y="163.388"
         x="78.9818"
         id="text617">Data</text>
      <text
         y="229.388"
         x="78.9818"
         id="text619">Segments</text>
      <text
         y="318.494"
         x="79.04"
         id="text621">Packets</text>
      <text
         y="384.494"
         x="79.04"
         id="text623">Frames</text>
      <text
         y="450.494"
         x="79.04"
         id="text625">Bits</text>
      <text
         y="18"
         x="248.982"
         id="text631"><tspan
           id="tspan627">Application</tspan><tspan
           x="248.982"
           font-size="10pt"
           dy="22"
           id="tspan629">Network Process to Application</tspan></text>
      <text
         y="82"
         x="248.982"
         id="text639"><tspan
           id="tspan633">Presentation</tspan><tspan
           x="248.982"
           font-size="10pt"
           dy="16"
           id="tspan635">Data Representation</tspan><tspan
           x="248.982"
           font-size="10pt"
           dy="16"
           id="tspan637">and Encryption</tspan></text>
      <text
         y="150"
         x="248.982"
         id="text645"><tspan
           id="tspan641">Session</tspan><tspan
           x="248.982"
           font-size="10pt"
           dy="22"
           id="tspan643">Interhost Communication</tspan></text>
      <text
         y="214"
         x="248.982"
         id="text653"><tspan
           id="tspan647">Transport</tspan><tspan
           x="248.982"
           font-size="10pt"
           dy="16"
           id="tspan649">End-to-End Connections</tspan><tspan
           x="248.982"
           font-size="10pt"
           dy="16"
           id="tspan651">and Reliability</tspan></text>
      <text
         y="303"
         x="249.04"
         id="text661"><tspan
           id="tspan655">Network</tspan><tspan
           x="248.982"
           font-size="10pt"
           dy="16"
           id="tspan657">Path Determination and</tspan><tspan
           x="248.982"
           font-size="10pt"
           dy="16"
           id="tspan659">Logical Addressing (IP)</tspan></text>
      <text
         y="369"
         x="249.04"
         id="text669"><tspan
           id="tspan663">Data Link</tspan><tspan
           x="248.982"
           font-size="10pt"
           dy="16"
           id="tspan665">Physical Addressing</tspan><tspan
           x="248.982"
           font-size="10pt"
           dy="16"
           id="tspan667">(MAC and LLC)</tspan></text>
      <text
         y="435"
         x="249.04"
         id="text677"><tspan
           id="tspan671">Physical</tspan><tspan
           x="248.982"
           font-size="10pt"
           dy="16"
           id="tspan673">Media, Signal and</tspan><tspan
           x="248.982"
           font-size="10pt"
           dy="16"
           id="tspan675">Binary Transmission</tspan></text>
      <g
         font-size="24.062"
         id="g683">
        <text
           y="127"
           x="-50"
           transform="rotate(-90 -50 127)"
           id="text679">Host Layers</text>
        <text
           y="384"
           x="-50"
           transform="rotate(-90 -50 384)"
           id="text681">Media Layers</text>
      </g>
    </g>
    <text
       xml:space="preserve"
       style="font-size:13.3333px;line-height:1.25;font-family:sans-serif"
       x="23.553719"
       y="94.424164"
       id="text21021"><tspan
         sodipodi:role="line"
         id="tspan21019"
         x="23.553719"
         y="94.424164"
         style="fill:#000000">Form</tspan></text>
    <text
       xml:space="preserve"
       style="font-size:13.3333px;line-height:1.25;font-family:sans-serif"
       x="190.31949"
       y="271.76807"
       id="text54790"><tspan
         sodipodi:role="line"
         id="tspan54788"
         x="190.31949"
         y="271.76807">              </tspan></text>
  </switch>
  <g
     inkscape:groupmode="layer"
     id="layer1"
     inkscape:label="Surcouche1"
     style="display:inline">
    <text
       xml:space="preserve"
       style="font-size:10.6667px;line-height:1.25;font-family:sans-serif"
       x="18.92882"
       y="222.68474"
       id="text130152"><tspan
         sodipodi:role="line"
         id="tspan130150"
         x="18.92882"
         y="222.68474"
         style="font-size:10.6667px">Fiabilité :Détection &amp; Correction Erreurs,</tspan><tspan
         sodipodi:role="line"
         x="18.92882"
         y="236.01811"
         id="tspan135116"
         style="font-size:10.6667px">Contrôle Flux, Segmentation / Réassemblage,</tspan><tspan
         sodipodi:role="line"
         x="18.92882"
         y="249.35149"
         id="tspan135118"
         style="font-size:10.6667px"> Multiplexage / Démultiplexage connexions</tspan></text>
    <text
       xml:space="preserve"
       style="font-size:13.3333px;line-height:1.25;font-family:sans-serif"
       x="42.184341"
       y="228.47348"
       id="text192020"><tspan
         sodipodi:role="line"
         id="tspan192018" /></text>
  </g>
  <ellipse
     style="fill:#2094f3;fill-opacity:0;stroke:#000601;stroke-opacity:1"
     id="path1628"
     cx="74.425995"
     cy="11.387101"
     rx="9.0020609"
     ry="9.1191349" />
  <ellipse
     style="fill:#2094f3;fill-opacity:0;stroke:#000601;stroke-opacity:1"
     id="path1628-3"
     cx="70.953064"
     cy="76.436729"
     rx="9.0020609"
     ry="9.1191349" />
  <ellipse
     style="fill:#2094f3;fill-opacity:0;stroke:#000601;stroke-opacity:1"
     id="path1628-6"
     cx="86.432594"
     cy="137.92567"
     rx="9.0020609"
     ry="9.1191349" />
  <ellipse
     style="fill:#2094f3;fill-opacity:0;stroke:#000601;stroke-opacity:1"
     id="path1628-7"
     cx="81.074837"
     cy="203.91646"
     rx="9.0020609"
     ry="9.1191349" />
  <ellipse
     style="fill:#2094f3;fill-opacity:0;stroke:#000601;stroke-opacity:1"
     id="path1628-5"
     cx="90.140579"
     cy="293.98566"
     rx="9.0020609"
     ry="9.1191349" />
  <ellipse
     style="fill:#2094f3;fill-opacity:0;stroke:#000601;stroke-opacity:1"
     id="path1628-35"
     cx="86.810577"
     cy="364.13348"
     rx="9.0020609"
     ry="9.1191349" />
  <ellipse
     style="fill:#2094f3;fill-opacity:0;stroke:#000601;stroke-opacity:1"
     id="path1628-62"
     cx="80.196411"
     cy="428.51532"
     rx="9.0020609"
     ry="9.1191349" />
  <text
     xml:space="preserve"
     style="font-size:13.3333px;line-height:1.25;font-family:sans-serif"
     x="41.259304"
     y="97.189079"
     id="text44842"><tspan
       sodipodi:role="line"
       id="tspan44840"
       x="41.259304"
       y="97.189079">Formattage, Compression &amp;</tspan><tspan
       sodipodi:role="line"
       x="41.259304"
       y="113.85571"
       id="tspan46946">   Cryptage des Données</tspan></text>
  <text
     xml:space="preserve"
     style="font-size:12px;line-height:1.25;font-family:sans-serif"
     x="34.887054"
     y="312.20312"
     id="text247511"><tspan
       sodipodi:role="line"
       id="tspan247509"
       x="34.887054"
       y="312.20312"
       style="font-size:12px">   Fragmentation en Paquets,</tspan><tspan
       sodipodi:role="line"
       x="34.887054"
       y="327.20312"
       id="tspan248741"
       style="font-size:12px">Détermine le routage / parcours,</tspan><tspan
       sodipodi:role="line"
       x="34.887054"
       y="342.20312"
       id="tspan248343"
       style="font-size:12px">    et l'adressage logique (IP)</tspan></text>
</svg>
